Review + recap 🧢
…
---

## What does group_by() do?

`group_by()` takes an existing `tbl` and converts it into a grouped `tbl` where operations are performed "by group":

.pull-left[

```r
ucbadmit
```

```
## # A tibble: 4,526 x 3
##    admit    gender dept 
##    <fct>    <fct>  <ord>
##  1 Admitted Male   A    
##  2 Admitted Male   A    
##  3 Admitted Male   A    
##  4 Admitted Male   A    
##  5 Admitted Male   A    
##  6 Admitted Male   A    
##  7 Admitted Male   A    
##  8 Admitted Male   A    
##  9 Admitted Male   A    
## 10 Admitted Male   A    
## # ... with 4,516 more rows
```
]
.pull-right[

```r
ucbadmit %>% 
  group_by(gender)
```

```
## # A tibble: 4,526 x 3
## # Groups:   gender [2]
##    admit    gender dept 
##    <fct>    <fct>  <ord>
##  1 Admitted Male   A    
##  2 Admitted Male   A    
##  3 Admitted Male   A    
##  4 Admitted Male   A    
##  5 Admitted Male   A    
##  6 Admitted Male   A    
##  7 Admitted Male   A    
##  8 Admitted Male   A    
##  9 Admitted Male   A    
## 10 Admitted Male   A    
## # ... with 4,516 more rows
```
…
---

## What does group_by() not do?

`group_by()` does not sort the data, `arrange()` does:

.pull-left[

```r
ucbadmit %>% 
  group_by(gender)
```

```
## # A tibble: 4,526 x 3
## # Groups:   gender [2]
##    admit    gender dept 
##    <fct>    <fct>  <ord>
##  1 Admitted Male   A    
##  2 Admitted Male   A    
##  3 Admitted Male   A    
##  4 Admitted Male   A    
##  5 Admitted Male   A    
##  6 Admitted Male   A    
##  7 Admitted Male   A    
##  8 Admitted Male   A    
##  9 Admitted Male   A    
## 10 Admitted Male   A    
## # ... with 4,516 more rows
```
]
.pull-right[

```r
ucbadmit %>% 
  arrange(gender)
```

```
## # A tibble: 4,526 x 3
##    admit    gender dept 
##    <fct>    <fct>  <ord>
##  1 Admitted Female A    
##  2 Admitted Female A    
##  3 Admitted Female A    
##  4 Admitted Female A    
##  5 Admitted Female A    
##  6 Admitted Female A    
##  7 Admitted Female A    
##  8 Admitted Female A    
##  9 Admitted Female A    
## 10 Admitted Female A    
## # ... with 4,516 more rows
```
…
---

## What does group_by() not do?

`group_by()` does not create frequency tables, `count()` does:

.pull-left[

```r
ucbadmit %>% 
  group_by(gender)
```

```
## # A tibble: 4,526 x 3
## # Groups:   gender [2]
##    admit    gender dept 
##    <fct>    <fct>  <ord>
##  1 Admitted Male   A    
##  2 Admitted Male   A    
##  3 Admitted Male   A    
##  4 Admitted Male   A    
##  5 Admitted Male   A    
##  6 Admitted Male   A    
##  7 Admitted Male   A    
##  8 Admitted Male   A    
##  9 Admitted Male   A    
## 10 Admitted Male   A    
## # ... with 4,516 more rows
```
…
