Estimation via bootstrapping 👢
…
---

## The bootstrap sample

.question[
How many observations are there in `boot_df`? What does each observation represent?
]

```r
boot_df
```

```
## # A tibble: 15,000 x 2
##    replicate  stat
##        <int> <dbl>
##  1         1 2350 
##  2         2 2300 
##  3         3 2550 
##  4         4 2550 
##  5         5 2350 
##  6         6 2350 
##  7         7 2262.
##  8         8 2422.
##  9         9 2350.
## 10        10 2350 
## # ... with 14,990 more rows
```
…
